{
    "include_frames": "frames_only",
    "multilabel_setting": "only_first",
    "fine_tune_bert": true,
    "learning_rate": 5e-05,
    "epochs": 12,
    "decoder": "mlp",
    "hidden_size": 1000,
    "use_train_data_portion": 1.0,
    "shuffle_before_portioning": true,
    "random_seed": 100,
    "extra_train_data_files": [
        "data/extra/exemplar_data/success_n_x_train.txt",
        "data/extra/generated_data/success_n_g_train.txt"
    ]
}