{
  "include_frames": "frames_only",
  "multilabel_setting": "only_first",
  "fine_tune_bert": true,
  "learning_rate": 5e-5,
  "epochs": 12,
  "decoder": "mlp",
  "hidden_size": 1000,
  "multilingual_bert": true
}