{
  "include_frames": "targets_only",
  "multilabel_setting": "binarized",
  "fine_tune_bert": true,
  "learning_rate": 5e-5,
  "epochs": 12,
  "decoder": "mlp",
  "hidden_size": 1000,
  "add_frame_context_vecs": true,
  "embed_labels": "none",
  "frame_context_net": null,
  "split_by_frames": true,
  "input_frame_predictions": "output/predictions/starsem/stripped_framesonly_sparse.rep2_dev387.csv"
}